{
  "type": "service_account",
  "project_id": "black-vehicle-339913",
  "private_key_id": "c7064acbf4a3a3c629f4c4cab6c8106d503c7994",
  "private_key": "-----BEGIN PRIVATE KEY-----\nMIIEvQIBADANBgkqhkiG9w0BAQEFAASCBKcwggSjAgEAAoIBAQC6ATt5X401Y1pz\nNB/qqwzhmU20Ei+ipeSOeMl8IidW9zXFeRQQh/ZDpn0ur3z/TprgPpkjFSPKAt5L\ns0OCt8lHTd8lDOu/5ih45VGQIdiEnQ/xXq+i7LMsTvY2/D6n/jFTmc37T7lc2wpr\nI+R6cnCN+LFzGquQEFYUfdWzbycdBlAylErkyNJWhfK8dM7WPTe8BOUXZJ84hJvx\noB7d4lGPrF8vrYqPHV7tBM1XUmVLr0Pb5Njj/6XXfkF0CDvThjMT7OV6PjOzWo3I\n601QgzPqt94FIt/QScz03tcBUrFCAZGJDJEhBesNHUlce9L979S5Dxfk63LV/37e\nJ27/NukLAgMBAAECggEAUdDW80VXXINuNrxXyaYhjV4ccreJInbr+MsifSqcuUEV\n8t2WOMtFRG6II6/nQHm34ClIvMjArEvksdGRQX9L1sRnAeoUDJ3VcZAU91wb3AEm\nERqAER8ilLvKy1bazJQf6FD/7Kods71ZcNUh28ZYweoBS8sQadb1th+/jyS2RKpR\nFdl9IOv+rf70nyIWANb5dDCFB+FiafoW40V0geqfCvViQDbLy3caGxnJABfibFhY\nMMGIMtUalrkvvKuCoOODLIbRwrUQY+ZA/fjOx3/Z1EqSM1s3BdTNGyzYq42f6jYg\n8T80YhwpDlBXXGFFZL6KsGzfJt0UIQcfybbWgzmLeQKBgQDkHZ9cA7202wrZptkX\n+ehxBZ+dJX49FeHHzvVnIHB4tXxtpqJ9VYigQv7VL2+5XWcZsGb4Bet8EA8vfR+B\n0oXDHw7A+/mTYiE0CBlySF+i/P4PamQiOf8id42IlMIFlgenJNNrFIJaaAIxrY5C\nt/2ZOqqmgC+vIDWCcoqvu3BQPQKBgQDQvdecFPnRwgN2YgBf0GVYQSwkO404SXCM\nUKpGklrmaqlP8rr3dxj9MwQPI8ich6R0pnjjTnEcwLaZWZZ0Us7mp138DiuXUA4R\nVIgs/yVtmbiTwO2FH8FmUEsnSvMW99w5/BIYXrmwydLMee6ax19DnGCFgF4jA++L\nJnQreU6q5wKBgFnYIO/IuWsF6pwWzuJWl2oMYPUv0yyT9b0Qki7v49xm/n7hZpYe\nnhUgzeWBLWvAkd7YT3XYPws5+AEoMsSa+fwDu3fexkl6GMG5fuw3/RLgud+wc4fX\nd9lHZQMqM9CnapQ2ON6v0TdyR4rxZFp6xPMY3CV/z0gWU3zxSBY2qOGxAoGBAMGG\nwFbcu6BVF5Cx21b5hnwEMECHVa5RqB7uym8TUWM+kCqnB+BWcryMh77hliRJPZdI\nn9td5lCZ+rDB9lNyUpBVqzT8jj2C4wf+LyJIixLJ6e5Sd+NsRYnt9z8+pZEtyueX\nY89kQxQ8iUs54JVvMkskt/gNwzkDdRq1VA7aMK0RAoGAeqHBCCwrAyz8y9Ah4Ft6\nzdTuIGtLTAG4xBFiBAZ/NZ8ql8Py9oOUuDFZytjA02Hcjxo/R9ct7XBTc8Ej3HJO\ngDGAPdCTIwsAWl/1hwkFOdHEdPGvPu9dH9tqzxYxMkqVx1T7ouvq0YsZWHCEK3F9\nmJ/2D6o+fQsuG+8VP/Tw/RM=\n-----END PRIVATE KEY-----\n",
  "client_email": "firebase-adminsdk-1ih4d@black-vehicle-339913.iam.gserviceaccount.com",
  "client_id": "102469117490883515326",
  "auth_uri": "https://accounts.google.com/o/oauth2/auth",
  "token_uri": "https://oauth2.googleapis.com/token",
  "auth_provider_x509_cert_url": "https://www.googleapis.com/oauth2/v1/certs",
  "client_x509_cert_url": "https://www.googleapis.com/robot/v1/metadata/x509/firebase-adminsdk-1ih4d%40black-vehicle-339913.iam.gserviceaccount.com"
}
